%YAML 1.1
%TAG !u! tag:unity3d.com,2011:
--- !u!1 &119956
GameObject:
  m_ObjectHideFlags: 0
  m_PrefabParentObject: {fileID: 0}
  m_PrefabInternal: {fileID: 100100000}
  serializedVersion: 4
  m_Component:
  - 4: {fileID: 445110}
  - 114: {fileID: 11490754}
  m_Layer: 11
  m_Name: Nade Launcher
  m_TagString: Untagged
  m_Icon: {fileID: 0}
  m_NavMeshLayer: 0
  m_StaticEditorFlags: 0
  m_IsActive: 1
--- !u!1 &139362
GameObject:
  m_ObjectHideFlags: 0
  m_PrefabParentObject: {fileID: 0}
  m_PrefabInternal: {fileID: 100100000}
  serializedVersion: 4
  m_Component:
  - 4: {fileID: 479602}
  m_Layer: 0
  m_Name: Rifle
  m_TagString: Untagged
  m_Icon: {fileID: 0}
  m_NavMeshLayer: 0
  m_StaticEditorFlags: 0
  m_IsActive: 1
--- !u!1 &146932
GameObject:
  m_ObjectHideFlags: 0
  m_PrefabParentObject: {fileID: 0}
  m_PrefabInternal: {fileID: 100100000}
  serializedVersion: 4
  m_Component:
  - 4: {fileID: 451544}
  m_Layer: 11
  m_Name: Left Hand Ik
  m_TagString: Untagged
  m_Icon: {fileID: 0}
  m_NavMeshLayer: 0
  m_StaticEditorFlags: 0
  m_IsActive: 1
--- !u!1 &163022
GameObject:
  m_ObjectHideFlags: 1
  m_PrefabParentObject: {fileID: 0}
  m_PrefabInternal: {fileID: 100100000}
  serializedVersion: 4
  m_Component:
  - 4: {fileID: 473956}
  - 33: {fileID: 3390314}
  - 23: {fileID: 2308628}
  m_Layer: 0
  m_Name: Firearm:Pistol
  m_TagString: Untagged
  m_Icon: {fileID: 0}
  m_NavMeshLayer: 0
  m_StaticEditorFlags: 0
  m_IsActive: 1
--- !u!1 &170256
GameObject:
  m_ObjectHideFlags: 1
  m_PrefabParentObject: {fileID: 0}
  m_PrefabInternal: {fileID: 100100000}
  serializedVersion: 4
  m_Component:
  - 4: {fileID: 413224}
  - 33: {fileID: 3348784}
  - 23: {fileID: 2369650}
  m_Layer: 0
  m_Name: Firearm:Rifle
  m_TagString: Untagged
  m_Icon: {fileID: 0}
  m_NavMeshLayer: 0
  m_StaticEditorFlags: 0
  m_IsActive: 1
--- !u!1 &195856
GameObject:
  m_ObjectHideFlags: 0
  m_PrefabParentObject: {fileID: 0}
  m_PrefabInternal: {fileID: 100100000}
  serializedVersion: 4
  m_Component:
  - 4: {fileID: 485988}
  m_Layer: 11
  m_Name: Spawn
  m_TagString: Untagged
  m_Icon: {fileID: 0}
  m_NavMeshLayer: 0
  m_StaticEditorFlags: 0
  m_IsActive: 1
--- !u!4 &413224
Transform:
  m_ObjectHideFlags: 1
  m_PrefabParentObject: {fileID: 0}
  m_PrefabInternal: {fileID: 100100000}
  m_GameObject: {fileID: 170256}
  m_LocalRotation: {x: 0, y: 0, z: 0, w: 1}
  m_LocalPosition: {x: 0, y: -0.08, z: 0.36}
  m_LocalScale: {x: 1.5, y: 1.5, z: 1.5}
  m_Children: []
  m_Father: {fileID: 479602}
  m_RootOrder: 1
--- !u!4 &445110
Transform:
  m_ObjectHideFlags: 1
  m_PrefabParentObject: {fileID: 0}
  m_PrefabInternal: {fileID: 100100000}
  m_GameObject: {fileID: 119956}
  m_LocalRotation: {x: 0, y: 0, z: 0, w: 1}
  m_LocalPosition: {x: -3.1145167, y: 0.5, z: -109.3}
  m_LocalScale: {x: 1, y: 1, z: 1}
  m_Children:
  - {fileID: 485988}
  - {fileID: 451544}
  - {fileID: 479602}
  m_Father: {fileID: 0}
  m_RootOrder: 0
--- !u!4 &451544
Transform:
  m_ObjectHideFlags: 1
  m_PrefabParentObject: {fileID: 0}
  m_PrefabInternal: {fileID: 100100000}
  m_GameObject: {fileID: 146932}
  m_LocalRotation: {x: -0.42766726, y: -0.05358973, z: -0.9008642, w: -0.05169749}
  m_LocalPosition: {x: -0.07, y: 0, z: 0.41}
  m_LocalScale: {x: 1, y: 1, z: 1}
  m_Children: []
  m_Father: {fileID: 445110}
  m_RootOrder: 1
--- !u!4 &473956
Transform:
  m_ObjectHideFlags: 1
  m_PrefabParentObject: {fileID: 0}
  m_PrefabInternal: {fileID: 100100000}
  m_GameObject: {fileID: 163022}
  m_LocalRotation: {x: 0, y: 0, z: 0, w: 1}
  m_LocalPosition: {x: 0, y: -0.08, z: 0.36}
  m_LocalScale: {x: 1.5, y: 1.5, z: 1.5}
  m_Children: []
  m_Father: {fileID: 479602}
  m_RootOrder: 0
--- !u!4 &479602
Transform:
  m_ObjectHideFlags: 1
  m_PrefabParentObject: {fileID: 0}
  m_PrefabInternal: {fileID: 100100000}
  m_GameObject: {fileID: 139362}
  m_LocalRotation: {x: 0, y: 0, z: 0, w: 1}
  m_LocalPosition: {x: -0.017, y: 0, z: 0}
  m_LocalScale: {x: 1, y: 1, z: 1}
  m_Children:
  - {fileID: 473956}
  - {fileID: 413224}
  m_Father: {fileID: 445110}
  m_RootOrder: 2
--- !u!4 &485988
Transform:
  m_ObjectHideFlags: 1
  m_PrefabParentObject: {fileID: 0}
  m_PrefabInternal: {fileID: 100100000}
  m_GameObject: {fileID: 195856}
  m_LocalRotation: {x: 0, y: 0, z: 0, w: 1}
  m_LocalPosition: {x: -0.017, y: 0.097, z: 0.797}
  m_LocalScale: {x: 1, y: 1, z: 1}
  m_Children: []
  m_Father: {fileID: 445110}
  m_RootOrder: 0
--- !u!23 &2308628
MeshRenderer:
  m_ObjectHideFlags: 1
  m_PrefabParentObject: {fileID: 0}
  m_PrefabInternal: {fileID: 100100000}
  m_GameObject: {fileID: 163022}
  m_Enabled: 1
  m_CastShadows: 1
  m_ReceiveShadows: 1
  m_Materials:
  - {fileID: 2100000, guid: 2f1230544f612604eb34254093c53d7d, type: 2}
  m_SubsetIndices: 
  m_StaticBatchRoot: {fileID: 0}
  m_UseLightProbes: 1
  m_ReflectionProbeUsage: 1
  m_ProbeAnchor: {fileID: 0}
  m_ScaleInLightmap: 1
  m_PreserveUVs: 0
  m_IgnoreNormalsForChartDetection: 0
  m_ImportantGI: 0
  m_MinimumChartSize: 4
  m_AutoUVMaxDistance: 0.5
  m_AutoUVMaxAngle: 89
  m_LightmapParameters: {fileID: 0}
  m_SortingLayerID: 0
  m_SortingOrder: 0
--- !u!23 &2369650
MeshRenderer:
  m_ObjectHideFlags: 1
  m_PrefabParentObject: {fileID: 0}
  m_PrefabInternal: {fileID: 100100000}
  m_GameObject: {fileID: 170256}
  m_Enabled: 1
  m_CastShadows: 1
  m_ReceiveShadows: 1
  m_Materials:
  - {fileID: 2100000, guid: 2f1230544f612604eb34254093c53d7d, type: 2}
  m_SubsetIndices: 
  m_StaticBatchRoot: {fileID: 0}
  m_UseLightProbes: 1
  m_ReflectionProbeUsage: 1
  m_ProbeAnchor: {fileID: 0}
  m_ScaleInLightmap: 1
  m_PreserveUVs: 0
  m_IgnoreNormalsForChartDetection: 0
  m_ImportantGI: 0
  m_MinimumChartSize: 4
  m_AutoUVMaxDistance: 0.5
  m_AutoUVMaxAngle: 89
  m_LightmapParameters: {fileID: 0}
  m_SortingLayerID: 0
  m_SortingOrder: 0
--- !u!33 &3348784
MeshFilter:
  m_ObjectHideFlags: 1
  m_PrefabParentObject: {fileID: 0}
  m_PrefabInternal: {fileID: 100100000}
  m_GameObject: {fileID: 170256}
  m_Mesh: {fileID: 4300050, guid: eaed4fdc601055c4cb93dd5a57721482, type: 3}
--- !u!33 &3390314
MeshFilter:
  m_ObjectHideFlags: 1
  m_PrefabParentObject: {fileID: 0}
  m_PrefabInternal: {fileID: 100100000}
  m_GameObject: {fileID: 163022}
  m_Mesh: {fileID: 4300052, guid: eaed4fdc601055c4cb93dd5a57721482, type: 3}
--- !u!114 &11490754
MonoBehaviour:
  m_ObjectHideFlags: 1
  m_PrefabParentObject: {fileID: 0}
  m_PrefabInternal: {fileID: 100100000}
  m_GameObject: {fileID: 119956}
  m_Enabled: 1
  m_EditorHideFlags: 0
  m_Script: {fileID: 11500000, guid: 1746e4e4ff931b3489f0d2a0a5512059, type: 3}
  m_Name: 
  m_EditorClassIdentifier: 
  Stats:
    Title: Nade Launcher
    WeaponType: 0
    UiImage: {fileID: 21300000, guid: 5cd3e650b8a54054c9d4552c6a09ff0d, type: 3}
    FireStyle: 0
    EffectiveRange: 10
    SwapTime: 0.2
    TypeId: 0
    NonDominantHandGoal: {fileID: 451544}
    NonDominantHandPos: {x: 0, y: 0, z: 0}
    NonDominantHandRot: {x: 0, y: 0, z: 0}
    WeaponInHandOffset: {fileID: 0}
    NonDominantElbowOffset: {x: 0, y: 0, z: 0}
    DominantElbowOffset: {x: 0, y: 0, z: 0}
    UseElbowHintL: 0
    UseElbowHintR: 0
    MountPivot: 0
    PositionOffset: {x: 0.23, y: 0, z: -0.07}
    RotationOffset: {x: 0, y: 0, z: 0}
    WeaponHeldInHand: 0
    FireSound: {fileID: 8300000, guid: 624bfac76afe7284889e9cd795bd97a1, type: 3}
    FiresProjectile: {fileID: 197694, guid: cdd7132ecf96467449830d8dfbd9cba6, type: 2}
    ProjectileSpawnPoints:
    - {fileID: 195856}
    NoAmmoSound: {fileID: 8300000, guid: c39172dc21d92be4283ac1997bede99b, type: 3}
    ReloadSound: {fileID: 8300000, guid: 12bd7fe23a80fb5488947c4fa694911a, type: 3}
    AmmoEjector: {fileID: 0}
    ReloadTime: 2
    AmmoCost: 1
    StartingMagazines: 2
    MagazineSize: 8
    CurrentMagazines: 10
    CurrentAmmo: 2
    AutoReload: 1
    TimeToCooldown: 0.2
    Accuracy: 1
    CanHitMultiples: 0
    CanAttackAndMove: 0
    WeaponTrail: {fileID: 0}
  ProjectileSpawnPoints: []
  FireSounds:
  - {fileID: 8300000, guid: be3b01c20d20f82449e937471f54ccc2, type: 3}
  AttackPrefabs: []
  Attacks: []
  ImpactTagNames: []
  ImpactSounds: []
  ImpactEffects: []
  Mask:
    serializedVersion: 2
    m_Bits: 0
  PickupReference: {fileID: 122042, guid: 67b1ece1b340f494da821dae2e5dc73b, type: 2}
  Owner: {fileID: 0}
  IsReloading: 0
  Attacking: 0
  Attacking2: 0
  DoingMeleeSwing: 0
  InputPermission: 1
--- !u!1001 &100100000
Prefab:
  m_ObjectHideFlags: 1
  serializedVersion: 2
  m_Modification:
    m_TransformParent: {fileID: 0}
    m_Modifications:
    - target: {fileID: 0}
      propertyPath: m_Materials.Array.data[0]
      value: 
      objectReference: {fileID: 2100000, guid: 48cf9913dd9d5d2428bd3f360c654ba1, type: 2}
    - target: {fileID: 0}
      propertyPath: m_UseLightProbes
      value: 0
      objectReference: {fileID: 0}
    - target: {fileID: 0}
      propertyPath: m_ReceiveShadows
      value: 0
      objectReference: {fileID: 0}
    - target: {fileID: 0}
      propertyPath: m_CastShadows
      value: 0
      objectReference: {fileID: 0}
    - target: {fileID: 0}
      propertyPath: m_Parameters.startWidth
      value: .0500000007
      objectReference: {fileID: 0}
    - target: {fileID: 0}
      propertyPath: m_Parameters.endWidth
      value: .0500000007
      objectReference: {fileID: 0}
    - target: {fileID: 0}
      propertyPath: OriginGameObject
      value: 
      objectReference: {fileID: 195856}
    - target: {fileID: 0}
      propertyPath: FireSounds.Array.data[0]
      value: 
      objectReference: {fileID: 8300000, guid: be3b01c20d20f82449e937471f54ccc2, type: 3}
    m_RemovedComponents: []
  m_ParentPrefab: {fileID: 0}
  m_RootGameObject: {fileID: 119956}
  m_IsPrefabParent: 1
