%YAML 1.1
%TAG !u! tag:unity3d.com,2011:
--- !u!1 &100282
GameObject:
  m_ObjectHideFlags: 1
  m_PrefabParentObject: {fileID: 0}
  m_PrefabInternal: {fileID: 100100000}
  serializedVersion: 4
  m_Component:
  - 4: {fileID: 438590}
  - 33: {fileID: 3369280}
  - 23: {fileID: 2388550}
  m_Layer: 0
  m_Name: minebot_front_upperleg 1
  m_TagString: Untagged
  m_Icon: {fileID: 0}
  m_NavMeshLayer: 0
  m_StaticEditorFlags: 0
  m_IsActive: 1
--- !u!1 &112474
GameObject:
  m_ObjectHideFlags: 1
  m_PrefabParentObject: {fileID: 0}
  m_PrefabInternal: {fileID: 100100000}
  serializedVersion: 4
  m_Component:
  - 4: {fileID: 437252}
  - 33: {fileID: 3300290}
  - 23: {fileID: 2315734}
  m_Layer: 0
  m_Name: minebot_right_upperleg
  m_TagString: Untagged
  m_Icon: {fileID: 0}
  m_NavMeshLayer: 0
  m_StaticEditorFlags: 0
  m_IsActive: 1
--- !u!1 &113056
GameObject:
  m_ObjectHideFlags: 1
  m_PrefabParentObject: {fileID: 0}
  m_PrefabInternal: {fileID: 100100000}
  serializedVersion: 4
  m_Component:
  - 4: {fileID: 461064}
  - 33: {fileID: 3310478}
  - 23: {fileID: 2387118}
  m_Layer: 0
  m_Name: minebot_head
  m_TagString: Untagged
  m_Icon: {fileID: 0}
  m_NavMeshLayer: 0
  m_StaticEditorFlags: 0
  m_IsActive: 1
--- !u!1 &121868
GameObject:
  m_ObjectHideFlags: 1
  m_PrefabParentObject: {fileID: 0}
  m_PrefabInternal: {fileID: 100100000}
  serializedVersion: 4
  m_Component:
  - 4: {fileID: 449074}
  - 33: {fileID: 3336584}
  - 23: {fileID: 2300436}
  m_Layer: 0
  m_Name: minebot_back_lowerleg
  m_TagString: Untagged
  m_Icon: {fileID: 0}
  m_NavMeshLayer: 0
  m_StaticEditorFlags: 0
  m_IsActive: 1
--- !u!1 &122826
GameObject:
  m_ObjectHideFlags: 1
  m_PrefabParentObject: {fileID: 0}
  m_PrefabInternal: {fileID: 100100000}
  serializedVersion: 4
  m_Component:
  - 4: {fileID: 467232}
  - 33: {fileID: 3367136}
  - 23: {fileID: 2316592}
  m_Layer: 0
  m_Name: minebot_right_lowerleg
  m_TagString: Untagged
  m_Icon: {fileID: 0}
  m_NavMeshLayer: 0
  m_StaticEditorFlags: 0
  m_IsActive: 1
--- !u!1 &139384
GameObject:
  m_ObjectHideFlags: 1
  m_PrefabParentObject: {fileID: 0}
  m_PrefabInternal: {fileID: 100100000}
  serializedVersion: 4
  m_Component:
  - 4: {fileID: 466700}
  - 33: {fileID: 3396380}
  - 23: {fileID: 2326736}
  m_Layer: 0
  m_Name: minebot_left_lowerleg
  m_TagString: Untagged
  m_Icon: {fileID: 0}
  m_NavMeshLayer: 0
  m_StaticEditorFlags: 0
  m_IsActive: 1
--- !u!1 &144764
GameObject:
  m_ObjectHideFlags: 1
  m_PrefabParentObject: {fileID: 0}
  m_PrefabInternal: {fileID: 100100000}
  serializedVersion: 4
  m_Component:
  - 4: {fileID: 452942}
  - 33: {fileID: 3380182}
  - 23: {fileID: 2315706}
  m_Layer: 0
  m_Name: minebot_main
  m_TagString: Untagged
  m_Icon: {fileID: 0}
  m_NavMeshLayer: 0
  m_StaticEditorFlags: 0
  m_IsActive: 1
--- !u!1 &154270
GameObject:
  m_ObjectHideFlags: 0
  m_PrefabParentObject: {fileID: 0}
  m_PrefabInternal: {fileID: 100100000}
  serializedVersion: 4
  m_Component:
  - 4: {fileID: 465270}
  - 136: {fileID: 13635418}
  - 54: {fileID: 5415166}
  - 114: {fileID: 11498898}
  - 114: {fileID: 11463108}
  m_Layer: 8
  m_Name: MineBot Player
  m_TagString: Flesh
  m_Icon: {fileID: 0}
  m_NavMeshLayer: 0
  m_StaticEditorFlags: 0
  m_IsActive: 1
--- !u!1 &157240
GameObject:
  m_ObjectHideFlags: 1
  m_PrefabParentObject: {fileID: 0}
  m_PrefabInternal: {fileID: 100100000}
  serializedVersion: 4
  m_Component:
  - 4: {fileID: 420998}
  m_Layer: 0
  m_Name: __WeaponMount
  m_TagString: Untagged
  m_Icon: {fileID: 0}
  m_NavMeshLayer: 0
  m_StaticEditorFlags: 0
  m_IsActive: 1
--- !u!1 &160908
GameObject:
  m_ObjectHideFlags: 1
  m_PrefabParentObject: {fileID: 0}
  m_PrefabInternal: {fileID: 100100000}
  serializedVersion: 4
  m_Component:
  - 4: {fileID: 462322}
  - 33: {fileID: 3352812}
  - 23: {fileID: 2396750}
  m_Layer: 0
  m_Name: minebot_front_lowerleg
  m_TagString: Untagged
  m_Icon: {fileID: 0}
  m_NavMeshLayer: 0
  m_StaticEditorFlags: 0
  m_IsActive: 1
--- !u!1 &175780
GameObject:
  m_ObjectHideFlags: 1
  m_PrefabParentObject: {fileID: 0}
  m_PrefabInternal: {fileID: 100100000}
  serializedVersion: 4
  m_Component:
  - 4: {fileID: 440166}
  - 33: {fileID: 3320894}
  - 23: {fileID: 2389180}
  m_Layer: 0
  m_Name: minebot_left_upperleg
  m_TagString: Untagged
  m_Icon: {fileID: 0}
  m_NavMeshLayer: 0
  m_StaticEditorFlags: 0
  m_IsActive: 1
--- !u!1 &178064
GameObject:
  m_ObjectHideFlags: 0
  m_PrefabParentObject: {fileID: 0}
  m_PrefabInternal: {fileID: 100100000}
  serializedVersion: 4
  m_Component:
  - 4: {fileID: 442882}
  - 95: {fileID: 9529704}
  m_Layer: 0
  m_Name: mine_bot
  m_TagString: Untagged
  m_Icon: {fileID: 0}
  m_NavMeshLayer: 0
  m_StaticEditorFlags: 0
  m_IsActive: 1
--- !u!1 &187672
GameObject:
  m_ObjectHideFlags: 1
  m_PrefabParentObject: {fileID: 0}
  m_PrefabInternal: {fileID: 100100000}
  serializedVersion: 4
  m_Component:
  - 4: {fileID: 474882}
  - 33: {fileID: 3383578}
  - 23: {fileID: 2317764}
  m_Layer: 0
  m_Name: minebot_front_upperleg
  m_TagString: Untagged
  m_Icon: {fileID: 0}
  m_NavMeshLayer: 0
  m_StaticEditorFlags: 0
  m_IsActive: 1
--- !u!4 &420998
Transform:
  m_ObjectHideFlags: 1
  m_PrefabParentObject: {fileID: 0}
  m_PrefabInternal: {fileID: 100100000}
  m_GameObject: {fileID: 157240}
  m_LocalRotation: {x: -0.00000009046598, y: 0.7071068, z: 0.0000000010589504, w: 0.7071067}
  m_LocalPosition: {x: -0, y: 0.54917645, z: -0}
  m_LocalScale: {x: 1, y: 1, z: 1}
  m_Children: []
  m_Father: {fileID: 461064}
  m_RootOrder: 0
--- !u!4 &437252
Transform:
  m_ObjectHideFlags: 1
  m_PrefabParentObject: {fileID: 0}
  m_PrefabInternal: {fileID: 100100000}
  m_GameObject: {fileID: 112474}
  m_LocalRotation: {x: -0.49385366, y: 0.5049066, z: 0.49544212, w: 0.5056828}
  m_LocalPosition: {x: 0.36594236, y: -0.103398986, z: 0.0000001351506}
  m_LocalScale: {x: 1, y: 0.99999994, z: 1}
  m_Children:
  - {fileID: 467232}
  m_Father: {fileID: 452942}
  m_RootOrder: 4
--- !u!4 &438590
Transform:
  m_ObjectHideFlags: 1
  m_PrefabParentObject: {fileID: 0}
  m_PrefabInternal: {fileID: 100100000}
  m_GameObject: {fileID: 100282}
  m_LocalRotation: {x: -0.7057329, y: 0.00006328893, z: -0.000114930284, w: 0.70847803}
  m_LocalPosition: {x: -0.00000015497206, y: -0.10339903, z: 0.3659426}
  m_LocalScale: {x: 1, y: 1, z: 1}
  m_Children:
  - {fileID: 462322}
  m_Father: {fileID: 452942}
  m_RootOrder: 1
--- !u!4 &440166
Transform:
  m_ObjectHideFlags: 1
  m_PrefabParentObject: {fileID: 0}
  m_PrefabInternal: {fileID: 100100000}
  m_GameObject: {fileID: 175780}
  m_LocalRotation: {x: -0.48992175, y: -0.5094689, z: -0.48969796, w: 0.51050377}
  m_LocalPosition: {x: -0.36594263, y: -0.10339901, z: 0.00000005403096}
  m_LocalScale: {x: 1, y: 1.0000001, z: 1.0000001}
  m_Children:
  - {fileID: 466700}
  m_Father: {fileID: 452942}
  m_RootOrder: 3
--- !u!4 &442882
Transform:
  m_ObjectHideFlags: 1
  m_PrefabParentObject: {fileID: 0}
  m_PrefabInternal: {fileID: 100100000}
  m_GameObject: {fileID: 178064}
  m_LocalRotation: {x: -0.7071068, y: 0, z: 0, w: 0.7071067}
  m_LocalPosition: {x: 0, y: 0, z: 0}
  m_LocalScale: {x: 1, y: 1, z: 1}
  m_Children:
  - {fileID: 452942}
  m_Father: {fileID: 465270}
  m_RootOrder: 0
--- !u!4 &449074
Transform:
  m_ObjectHideFlags: 1
  m_PrefabParentObject: {fileID: 0}
  m_PrefabInternal: {fileID: 100100000}
  m_GameObject: {fileID: 121868}
  m_LocalRotation: {x: -0.008432051, y: 0.000024319019, z: 0.000028339458, w: 0.9999645}
  m_LocalPosition: {x: -0.00000001859211, y: -0.12080678, z: 0.39789253}
  m_LocalScale: {x: 1, y: 0.99999994, z: 0.99999994}
  m_Children: []
  m_Father: {fileID: 474882}
  m_RootOrder: 0
--- !u!4 &452942
Transform:
  m_ObjectHideFlags: 1
  m_PrefabParentObject: {fileID: 0}
  m_PrefabInternal: {fileID: 100100000}
  m_GameObject: {fileID: 144764}
  m_LocalRotation: {x: 0.5000001, y: -0.49999997, z: -0.49999985, w: 0.5000001}
  m_LocalPosition: {x: -0, y: -0.000000018214555, z: 0.37071997}
  m_LocalScale: {x: 1, y: 1, z: 1}
  m_Children:
  - {fileID: 474882}
  - {fileID: 438590}
  - {fileID: 461064}
  - {fileID: 440166}
  - {fileID: 437252}
  m_Father: {fileID: 442882}
  m_RootOrder: 0
--- !u!4 &461064
Transform:
  m_ObjectHideFlags: 1
  m_PrefabParentObject: {fileID: 0}
  m_PrefabInternal: {fileID: 100100000}
  m_GameObject: {fileID: 113056}
  m_LocalRotation: {x: 0.00000004371138, y: -3.3001177e-15, z: -0.00000007549791,
    w: 1}
  m_LocalPosition: {x: 0.00000008909922, y: 0.45082316, z: -0.000000056954597}
  m_LocalScale: {x: 1, y: 1, z: 1}
  m_Children:
  - {fileID: 420998}
  m_Father: {fileID: 452942}
  m_RootOrder: 2
--- !u!4 &462322
Transform:
  m_ObjectHideFlags: 1
  m_PrefabParentObject: {fileID: 0}
  m_PrefabInternal: {fileID: 100100000}
  m_GameObject: {fileID: 160908}
  m_LocalRotation: {x: -0.008426808, y: -0.00006999203, z: -0.000030909392, w: 0.99996454}
  m_LocalPosition: {x: -0.000000018590596, y: -0.12080678, z: 0.39789262}
  m_LocalScale: {x: 0.99999994, y: 1, z: 1}
  m_Children: []
  m_Father: {fileID: 438590}
  m_RootOrder: 0
--- !u!4 &465270
Transform:
  m_ObjectHideFlags: 1
  m_PrefabParentObject: {fileID: 0}
  m_PrefabInternal: {fileID: 100100000}
  m_GameObject: {fileID: 154270}
  m_LocalRotation: {x: 0.0000000614673, y: -0.02879385, z: 0, w: 0.9995854}
  m_LocalPosition: {x: 15, y: 19.6, z: -7.7}
  m_LocalScale: {x: 1, y: 1, z: 1}
  m_Children:
  - {fileID: 442882}
  m_Father: {fileID: 0}
  m_RootOrder: 0
--- !u!4 &466700
Transform:
  m_ObjectHideFlags: 1
  m_PrefabParentObject: {fileID: 0}
  m_PrefabInternal: {fileID: 100100000}
  m_GameObject: {fileID: 139384}
  m_LocalRotation: {x: -0.0037726467, y: -0.00030110814, z: 0.00026565624, w: 0.99999285}
  m_LocalPosition: {x: -0.00000001859665, y: -0.12080674, z: 0.3978926}
  m_LocalScale: {x: 0.99999994, y: 1.0000001, z: 1.0000001}
  m_Children: []
  m_Father: {fileID: 440166}
  m_RootOrder: 0
--- !u!4 &467232
Transform:
  m_ObjectHideFlags: 1
  m_PrefabParentObject: {fileID: 0}
  m_PrefabInternal: {fileID: 100100000}
  m_GameObject: {fileID: 122826}
  m_LocalRotation: {x: -0.0037455743, y: 0.00047785346, z: 0.0005570704, w: 0.9999927}
  m_LocalPosition: {x: -0.000000018402934, y: -0.12080674, z: 0.39789256}
  m_LocalScale: {x: 1, y: 0.9999998, z: 0.99999994}
  m_Children: []
  m_Father: {fileID: 437252}
  m_RootOrder: 0
--- !u!4 &474882
Transform:
  m_ObjectHideFlags: 1
  m_PrefabParentObject: {fileID: 0}
  m_PrefabInternal: {fileID: 100100000}
  m_GameObject: {fileID: 187672}
  m_LocalRotation: {x: 0.000053743464, y: 0.70847875, z: 0.7057321, w: 0.000026991404}
  m_LocalPosition: {x: -0.00000009298322, y: -0.10339903, z: -0.36594245}
  m_LocalScale: {x: 1, y: 1, z: 1}
  m_Children:
  - {fileID: 449074}
  m_Father: {fileID: 452942}
  m_RootOrder: 0
--- !u!23 &2300436
MeshRenderer:
  m_ObjectHideFlags: 1
  m_PrefabParentObject: {fileID: 0}
  m_PrefabInternal: {fileID: 100100000}
  m_GameObject: {fileID: 121868}
  m_Enabled: 1
  m_CastShadows: 1
  m_ReceiveShadows: 1
  m_Materials:
  - {fileID: 2100000, guid: fbf4584fba8307a4392689f6ca5d88c5, type: 2}
  m_SubsetIndices: 
  m_StaticBatchRoot: {fileID: 0}
  m_UseLightProbes: 1
  m_ReflectionProbeUsage: 1
  m_ProbeAnchor: {fileID: 0}
  m_ScaleInLightmap: 1
  m_PreserveUVs: 0
  m_IgnoreNormalsForChartDetection: 0
  m_ImportantGI: 0
  m_MinimumChartSize: 4
  m_AutoUVMaxDistance: 0.5
  m_AutoUVMaxAngle: 89
  m_LightmapParameters: {fileID: 0}
  m_SortingLayerID: 0
  m_SortingOrder: 0
--- !u!23 &2315706
MeshRenderer:
  m_ObjectHideFlags: 1
  m_PrefabParentObject: {fileID: 0}
  m_PrefabInternal: {fileID: 100100000}
  m_GameObject: {fileID: 144764}
  m_Enabled: 1
  m_CastShadows: 1
  m_ReceiveShadows: 1
  m_Materials:
  - {fileID: 2100000, guid: fbf4584fba8307a4392689f6ca5d88c5, type: 2}
  m_SubsetIndices: 
  m_StaticBatchRoot: {fileID: 0}
  m_UseLightProbes: 1
  m_ReflectionProbeUsage: 1
  m_ProbeAnchor: {fileID: 0}
  m_ScaleInLightmap: 1
  m_PreserveUVs: 0
  m_IgnoreNormalsForChartDetection: 0
  m_ImportantGI: 0
  m_MinimumChartSize: 4
  m_AutoUVMaxDistance: 0.5
  m_AutoUVMaxAngle: 89
  m_LightmapParameters: {fileID: 0}
  m_SortingLayerID: 0
  m_SortingOrder: 0
--- !u!23 &2315734
MeshRenderer:
  m_ObjectHideFlags: 1
  m_PrefabParentObject: {fileID: 0}
  m_PrefabInternal: {fileID: 100100000}
  m_GameObject: {fileID: 112474}
  m_Enabled: 1
  m_CastShadows: 1
  m_ReceiveShadows: 1
  m_Materials:
  - {fileID: 2100000, guid: fbf4584fba8307a4392689f6ca5d88c5, type: 2}
  m_SubsetIndices: 
  m_StaticBatchRoot: {fileID: 0}
  m_UseLightProbes: 1
  m_ReflectionProbeUsage: 1
  m_ProbeAnchor: {fileID: 0}
  m_ScaleInLightmap: 1
  m_PreserveUVs: 0
  m_IgnoreNormalsForChartDetection: 0
  m_ImportantGI: 0
  m_MinimumChartSize: 4
  m_AutoUVMaxDistance: 0.5
  m_AutoUVMaxAngle: 89
  m_LightmapParameters: {fileID: 0}
  m_SortingLayerID: 0
  m_SortingOrder: 0
--- !u!23 &2316592
MeshRenderer:
  m_ObjectHideFlags: 1
  m_PrefabParentObject: {fileID: 0}
  m_PrefabInternal: {fileID: 100100000}
  m_GameObject: {fileID: 122826}
  m_Enabled: 1
  m_CastShadows: 1
  m_ReceiveShadows: 1
  m_Materials:
  - {fileID: 2100000, guid: fbf4584fba8307a4392689f6ca5d88c5, type: 2}
  m_SubsetIndices: 
  m_StaticBatchRoot: {fileID: 0}
  m_UseLightProbes: 1
  m_ReflectionProbeUsage: 1
  m_ProbeAnchor: {fileID: 0}
  m_ScaleInLightmap: 1
  m_PreserveUVs: 0
  m_IgnoreNormalsForChartDetection: 0
  m_ImportantGI: 0
  m_MinimumChartSize: 4
  m_AutoUVMaxDistance: 0.5
  m_AutoUVMaxAngle: 89
  m_LightmapParameters: {fileID: 0}
  m_SortingLayerID: 0
  m_SortingOrder: 0
--- !u!23 &2317764
MeshRenderer:
  m_ObjectHideFlags: 1
  m_PrefabParentObject: {fileID: 0}
  m_PrefabInternal: {fileID: 100100000}
  m_GameObject: {fileID: 187672}
  m_Enabled: 1
  m_CastShadows: 1
  m_ReceiveShadows: 1
  m_Materials:
  - {fileID: 2100000, guid: fbf4584fba8307a4392689f6ca5d88c5, type: 2}
  m_SubsetIndices: 
  m_StaticBatchRoot: {fileID: 0}
  m_UseLightProbes: 1
  m_ReflectionProbeUsage: 1
  m_ProbeAnchor: {fileID: 0}
  m_ScaleInLightmap: 1
  m_PreserveUVs: 0
  m_IgnoreNormalsForChartDetection: 0
  m_ImportantGI: 0
  m_MinimumChartSize: 4
  m_AutoUVMaxDistance: 0.5
  m_AutoUVMaxAngle: 89
  m_LightmapParameters: {fileID: 0}
  m_SortingLayerID: 0
  m_SortingOrder: 0
--- !u!23 &2326736
MeshRenderer:
  m_ObjectHideFlags: 1
  m_PrefabParentObject: {fileID: 0}
  m_PrefabInternal: {fileID: 100100000}
  m_GameObject: {fileID: 139384}
  m_Enabled: 1
  m_CastShadows: 1
  m_ReceiveShadows: 1
  m_Materials:
  - {fileID: 2100000, guid: fbf4584fba8307a4392689f6ca5d88c5, type: 2}
  m_SubsetIndices: 
  m_StaticBatchRoot: {fileID: 0}
  m_UseLightProbes: 1
  m_ReflectionProbeUsage: 1
  m_ProbeAnchor: {fileID: 0}
  m_ScaleInLightmap: 1
  m_PreserveUVs: 0
  m_IgnoreNormalsForChartDetection: 0
  m_ImportantGI: 0
  m_MinimumChartSize: 4
  m_AutoUVMaxDistance: 0.5
  m_AutoUVMaxAngle: 89
  m_LightmapParameters: {fileID: 0}
  m_SortingLayerID: 0
  m_SortingOrder: 0
--- !u!23 &2387118
MeshRenderer:
  m_ObjectHideFlags: 1
  m_PrefabParentObject: {fileID: 0}
  m_PrefabInternal: {fileID: 100100000}
  m_GameObject: {fileID: 113056}
  m_Enabled: 1
  m_CastShadows: 1
  m_ReceiveShadows: 1
  m_Materials:
  - {fileID: 2100000, guid: fbf4584fba8307a4392689f6ca5d88c5, type: 2}
  m_SubsetIndices: 
  m_StaticBatchRoot: {fileID: 0}
  m_UseLightProbes: 1
  m_ReflectionProbeUsage: 1
  m_ProbeAnchor: {fileID: 0}
  m_ScaleInLightmap: 1
  m_PreserveUVs: 0
  m_IgnoreNormalsForChartDetection: 0
  m_ImportantGI: 0
  m_MinimumChartSize: 4
  m_AutoUVMaxDistance: 0.5
  m_AutoUVMaxAngle: 89
  m_LightmapParameters: {fileID: 0}
  m_SortingLayerID: 0
  m_SortingOrder: 0
--- !u!23 &2388550
MeshRenderer:
  m_ObjectHideFlags: 1
  m_PrefabParentObject: {fileID: 0}
  m_PrefabInternal: {fileID: 100100000}
  m_GameObject: {fileID: 100282}
  m_Enabled: 1
  m_CastShadows: 1
  m_ReceiveShadows: 1
  m_Materials:
  - {fileID: 2100000, guid: fbf4584fba8307a4392689f6ca5d88c5, type: 2}
  m_SubsetIndices: 
  m_StaticBatchRoot: {fileID: 0}
  m_UseLightProbes: 1
  m_ReflectionProbeUsage: 1
  m_ProbeAnchor: {fileID: 0}
  m_ScaleInLightmap: 1
  m_PreserveUVs: 0
  m_IgnoreNormalsForChartDetection: 0
  m_ImportantGI: 0
  m_MinimumChartSize: 4
  m_AutoUVMaxDistance: 0.5
  m_AutoUVMaxAngle: 89
  m_LightmapParameters: {fileID: 0}
  m_SortingLayerID: 0
  m_SortingOrder: 0
--- !u!23 &2389180
MeshRenderer:
  m_ObjectHideFlags: 1
  m_PrefabParentObject: {fileID: 0}
  m_PrefabInternal: {fileID: 100100000}
  m_GameObject: {fileID: 175780}
  m_Enabled: 1
  m_CastShadows: 1
  m_ReceiveShadows: 1
  m_Materials:
  - {fileID: 2100000, guid: fbf4584fba8307a4392689f6ca5d88c5, type: 2}
  m_SubsetIndices: 
  m_StaticBatchRoot: {fileID: 0}
  m_UseLightProbes: 1
  m_ReflectionProbeUsage: 1
  m_ProbeAnchor: {fileID: 0}
  m_ScaleInLightmap: 1
  m_PreserveUVs: 0
  m_IgnoreNormalsForChartDetection: 0
  m_ImportantGI: 0
  m_MinimumChartSize: 4
  m_AutoUVMaxDistance: 0.5
  m_AutoUVMaxAngle: 89
  m_LightmapParameters: {fileID: 0}
  m_SortingLayerID: 0
  m_SortingOrder: 0
--- !u!23 &2396750
MeshRenderer:
  m_ObjectHideFlags: 1
  m_PrefabParentObject: {fileID: 0}
  m_PrefabInternal: {fileID: 100100000}
  m_GameObject: {fileID: 160908}
  m_Enabled: 1
  m_CastShadows: 1
  m_ReceiveShadows: 1
  m_Materials:
  - {fileID: 2100000, guid: fbf4584fba8307a4392689f6ca5d88c5, type: 2}
  m_SubsetIndices: 
  m_StaticBatchRoot: {fileID: 0}
  m_UseLightProbes: 1
  m_ReflectionProbeUsage: 1
  m_ProbeAnchor: {fileID: 0}
  m_ScaleInLightmap: 1
  m_PreserveUVs: 0
  m_IgnoreNormalsForChartDetection: 0
  m_ImportantGI: 0
  m_MinimumChartSize: 4
  m_AutoUVMaxDistance: 0.5
  m_AutoUVMaxAngle: 89
  m_LightmapParameters: {fileID: 0}
  m_SortingLayerID: 0
  m_SortingOrder: 0
--- !u!33 &3300290
MeshFilter:
  m_ObjectHideFlags: 1
  m_PrefabParentObject: {fileID: 0}
  m_PrefabInternal: {fileID: 100100000}
  m_GameObject: {fileID: 112474}
  m_Mesh: {fileID: 4300002, guid: caeffedc34d9f4161b7694ad0d84bbd3, type: 3}
--- !u!33 &3310478
MeshFilter:
  m_ObjectHideFlags: 1
  m_PrefabParentObject: {fileID: 0}
  m_PrefabInternal: {fileID: 100100000}
  m_GameObject: {fileID: 113056}
  m_Mesh: {fileID: 4300006, guid: caeffedc34d9f4161b7694ad0d84bbd3, type: 3}
--- !u!33 &3320894
MeshFilter:
  m_ObjectHideFlags: 1
  m_PrefabParentObject: {fileID: 0}
  m_PrefabInternal: {fileID: 100100000}
  m_GameObject: {fileID: 175780}
  m_Mesh: {fileID: 4300012, guid: caeffedc34d9f4161b7694ad0d84bbd3, type: 3}
--- !u!33 &3336584
MeshFilter:
  m_ObjectHideFlags: 1
  m_PrefabParentObject: {fileID: 0}
  m_PrefabInternal: {fileID: 100100000}
  m_GameObject: {fileID: 121868}
  m_Mesh: {fileID: 4300010, guid: caeffedc34d9f4161b7694ad0d84bbd3, type: 3}
--- !u!33 &3352812
MeshFilter:
  m_ObjectHideFlags: 1
  m_PrefabParentObject: {fileID: 0}
  m_PrefabInternal: {fileID: 100100000}
  m_GameObject: {fileID: 160908}
  m_Mesh: {fileID: 4300018, guid: caeffedc34d9f4161b7694ad0d84bbd3, type: 3}
--- !u!33 &3367136
MeshFilter:
  m_ObjectHideFlags: 1
  m_PrefabParentObject: {fileID: 0}
  m_PrefabInternal: {fileID: 100100000}
  m_GameObject: {fileID: 122826}
  m_Mesh: {fileID: 4300004, guid: caeffedc34d9f4161b7694ad0d84bbd3, type: 3}
--- !u!33 &3369280
MeshFilter:
  m_ObjectHideFlags: 1
  m_PrefabParentObject: {fileID: 0}
  m_PrefabInternal: {fileID: 100100000}
  m_GameObject: {fileID: 100282}
  m_Mesh: {fileID: 4300016, guid: caeffedc34d9f4161b7694ad0d84bbd3, type: 3}
--- !u!33 &3380182
MeshFilter:
  m_ObjectHideFlags: 1
  m_PrefabParentObject: {fileID: 0}
  m_PrefabInternal: {fileID: 100100000}
  m_GameObject: {fileID: 144764}
  m_Mesh: {fileID: 4300000, guid: caeffedc34d9f4161b7694ad0d84bbd3, type: 3}
--- !u!33 &3383578
MeshFilter:
  m_ObjectHideFlags: 1
  m_PrefabParentObject: {fileID: 0}
  m_PrefabInternal: {fileID: 100100000}
  m_GameObject: {fileID: 187672}
  m_Mesh: {fileID: 4300008, guid: caeffedc34d9f4161b7694ad0d84bbd3, type: 3}
--- !u!33 &3396380
MeshFilter:
  m_ObjectHideFlags: 1
  m_PrefabParentObject: {fileID: 0}
  m_PrefabInternal: {fileID: 100100000}
  m_GameObject: {fileID: 139384}
  m_Mesh: {fileID: 4300014, guid: caeffedc34d9f4161b7694ad0d84bbd3, type: 3}
--- !u!54 &5415166
Rigidbody:
  m_ObjectHideFlags: 1
  m_PrefabParentObject: {fileID: 0}
  m_PrefabInternal: {fileID: 100100000}
  m_GameObject: {fileID: 154270}
  serializedVersion: 2
  m_Mass: 5
  m_Drag: 50
  m_AngularDrag: 50
  m_UseGravity: 1
  m_IsKinematic: 0
  m_Interpolate: 0
  m_Constraints: 80
  m_CollisionDetection: 0
--- !u!95 &9529704
Animator:
  serializedVersion: 3
  m_ObjectHideFlags: 1
  m_PrefabParentObject: {fileID: 0}
  m_PrefabInternal: {fileID: 100100000}
  m_GameObject: {fileID: 178064}
  m_Enabled: 1
  m_Avatar: {fileID: 9000000, guid: caeffedc34d9f4161b7694ad0d84bbd3, type: 3}
  m_Controller: {fileID: 9100000, guid: 76a091a81dcb2984d8d2509637d4a637, type: 2}
  m_CullingMode: 0
  m_UpdateMode: 0
  m_ApplyRootMotion: 0
  m_LinearVelocityBlending: 0
  m_WarningMessage: 
  m_HasTransformHierarchy: 1
  m_AllowConstantClipSamplingOptimization: 1
--- !u!114 &11463108
MonoBehaviour:
  m_ObjectHideFlags: 1
  m_PrefabParentObject: {fileID: 0}
  m_PrefabInternal: {fileID: 100100000}
  m_GameObject: {fileID: 154270}
  m_Enabled: 1
  m_EditorHideFlags: 0
  m_Script: {fileID: 11500000, guid: 062cc789352f3c543b3dc579afc2a13c, type: 3}
  m_Name: 
  m_EditorClassIdentifier: 
  AimControlFeel: 1
  MoveControlFeel: 0
  AimTension: 20
  MoveTension: 8
  ChangeWeapon: Mouse ScrollWheel
  Horizontal: Horizontal
  Vertical: Vertical
  Fire1: Fire1
  Fire2: Fire2
  Reload: Reload
  Interact: Interact
  DropWeapon: DropWeapon
  Mask:
    serializedVersion: 2
    m_Bits: 16384
  LogDebug: 0
  WalkAnimSpeed: 0
  RunAnimSpeed: 0
  UseRootMotion: 0
  AnimatorDampening: 0
  UseInControl: 0
  DeviceNumber: 0
  InputPermission: 0
--- !u!114 &11498898
MonoBehaviour:
  m_ObjectHideFlags: 1
  m_PrefabParentObject: {fileID: 0}
  m_PrefabInternal: {fileID: 100100000}
  m_GameObject: {fileID: 154270}
  m_Enabled: 1
  m_EditorHideFlags: 0
  m_Script: {fileID: 11500000, guid: c50a1e56655eda84991480bcc7b06489, type: 3}
  m_Name: 
  m_EditorClassIdentifier: 
  Stats:
    SubjectGroup: 0
    ArmorType: 0
    RigType: 1
    TeamId: 8
    Title: Hal
    HitSound: {fileID: 8300000, guid: 214428ffbf973de45a0d0a09a5db319d, type: 3}
    DeathSound: {fileID: 0}
    MaxWeaponSlots: 0
    CrippledTime: 30
    CorpseTime: 60
    DeathFx: {fileID: 0}
    LevelUpFx: {fileID: 0}
    SpawnFx: {fileID: 0}
    UseMecanim: 1
    WeaponMountPoint: {fileID: 157240}
    AnimatorHostObj: {fileID: 178064}
    UseWeaponIk: 0
    UseLeftHandIk: 0
    UseRightHandIk: 0
    CharacterScale: 1
    Level:
      Base: 1
      Actual: 1
      Min: 1
      Max: 100
      IncreasePerLevel: 1
    Experience:
      Base: 0
      Actual: 0
      Min: 0
      Max: 100
      IncreasePerLevel: 100
    XpReward:
      Base: 25
      Actual: 25
      Min: 0
      Max: 25
      IncreasePerLevel: 25
    Health:
      Base: 100
      Actual: 100
      Min: 0
      Max: 100
      IncreasePerLevel: 10
    Armor:
      Base: 0
      Actual: 0
      Min: 0
      Max: 100
      IncreasePerLevel: 10
    Strength:
      Base: 10
      Actual: 10
      Min: 0
      Max: 100
      IncreasePerLevel: 1
    Agility:
      Base: 10
      Actual: 10
      Min: 0
      Max: 100
      IncreasePerLevel: 1
    Dexterity:
      Base: 10
      Actual: 10
      Min: 0
      Max: 100
      IncreasePerLevel: 1
    Endurance:
      Base: 10
      Actual: 10
      Min: 0
      Max: 100
      IncreasePerLevel: 1
    DamageTypeMultipliers:
    - 1
    - 1
    - 1
    - 1
    - 1
    - 1
    - 1
    - 1
    - 1
    - 1
    Kills: 0
    Deaths: 0
    DamageDealt: 0
    DamageTaken: 0
    ShotsConnected: 0
    ShotsMissed: 0
    Coin: 0
    Score: 0
  ControlStats:
    TurnSpeed: 5.8
    MoveSpeed: 12
    AnimatorMoveSpeed: 
    AnimatorHorizontal: horizontal
    AnimatorVertical: vertical
    AnimatorDie: die
    AnimatorRevive: revive
    AnimatorReload: isReloading
    AnimatorSwap: isSwapping
    AnimatorWeaponType: weaponType
  WeaponListEditor:
  - {fileID: 110604, guid: 5576e7681222172499d8af34d9cf3115, type: 2}
  WeaponListRuntime:
  - {fileID: 0}
  - {fileID: 0}
  - {fileID: 0}
  - {fileID: 0}
  SwapSound: {fileID: 8300000, guid: f9e1af9db897e8646bede2d4ef1d265a, type: 3}
  LogDebug: 0
  WeaponRestPoint: {fileID: 0}
  IsDead: 0
  LastDamage: 0
  LastAttacker: {fileID: 0}
  UnlimitedAmmo: 0
  GodMode: 1
  InputPermission: 0
  ShowGunDebug: 0
  InvertHandForward: 0
  ThumbDirection: {x: 0, y: 0, z: -1}
  PalmDirection: {x: 0, y: 1, z: 0}
  DominantHandPosCorrection: {x: 0, y: 0, z: 0}
  DominantHandRotCorrection: {x: 90, y: -90, z: 0}
  NonDominantHandPosCorrection: {x: 0, y: 0.05, z: 0}
  NonDominantHandRotCorrection: {x: 0, y: 0, z: 0}
  WeaponPositionInHandCorrection: {x: 0, y: 0, z: 0}
  RightHandIkLayer: 0
  LeftHandIkLayer: 1
  MyAnimator: {fileID: 0}
--- !u!136 &13635418
CapsuleCollider:
  m_ObjectHideFlags: 1
  m_PrefabParentObject: {fileID: 0}
  m_PrefabInternal: {fileID: 100100000}
  m_GameObject: {fileID: 154270}
  m_Material: {fileID: 0}
  m_IsTrigger: 0
  m_Enabled: 1
  m_Radius: 0.4
  m_Height: 2
  m_Direction: 1
  m_Center: {x: 0, y: 1, z: 0}
--- !u!1001 &100100000
Prefab:
  m_ObjectHideFlags: 1
  serializedVersion: 2
  m_Modification:
    m_TransformParent: {fileID: 0}
    m_Modifications: []
    m_RemovedComponents: []
  m_ParentPrefab: {fileID: 0}
  m_RootGameObject: {fileID: 154270}
  m_IsPrefabParent: 1
