%YAML 1.1
%TAG !u! tag:unity3d.com,2011:
--- !u!1 &137156
GameObject:
  m_ObjectHideFlags: 0
  m_PrefabParentObject: {fileID: 0}
  m_PrefabInternal: {fileID: 100100000}
  serializedVersion: 4
  m_Component:
  - 4: {fileID: 416820}
  - 114: {fileID: 11497766}
  m_Layer: 0
  m_Name: Fistacle_Swing
  m_TagString: Untagged
  m_Icon: {fileID: 0}
  m_NavMeshLayer: 0
  m_StaticEditorFlags: 0
  m_IsActive: 1
--- !u!4 &416820
Transform:
  m_ObjectHideFlags: 1
  m_PrefabParentObject: {fileID: 0}
  m_PrefabInternal: {fileID: 100100000}
  m_GameObject: {fileID: 137156}
  m_LocalRotation: {x: 0, y: 0, z: 0, w: 1}
  m_LocalPosition: {x: -16.663, y: -11.095, z: 13.77}
  m_LocalScale: {x: 1, y: 1, z: 1}
  m_Children: []
  m_Father: {fileID: 0}
  m_RootOrder: 0
--- !u!114 &11497766
MonoBehaviour:
  m_ObjectHideFlags: 1
  m_PrefabParentObject: {fileID: 0}
  m_PrefabInternal: {fileID: 100100000}
  m_GameObject: {fileID: 137156}
  m_Enabled: 1
  m_EditorHideFlags: 0
  m_Script: {fileID: 11500000, guid: fe21a29fcf006284782d520adb49d270, type: 3}
  m_Name: 
  m_EditorClassIdentifier: 
  Damage: 5
  Cooldown: 2.5
  IsVeryFast: 0
  TriggerStartAt: 0.2
  TriggerEndAt: 0.8
  InputReference: Fire1
  AnimatorTriggerName: Melee1
  AnimatonSpeed: 1
  AnimatorAttackSpeed: AttackSpeed
  DamageType: 0
--- !u!1001 &100100000
Prefab:
  m_ObjectHideFlags: 1
  serializedVersion: 2
  m_Modification:
    m_TransformParent: {fileID: 0}
    m_Modifications:
    - target: {fileID: 0}
      propertyPath: Input
      value: Fire1
      objectReference: {fileID: 0}
    - target: {fileID: 0}
      propertyPath: Damage
      value: 5
      objectReference: {fileID: 0}
    - target: {fileID: 0}
      propertyPath: Time
      value: .400000006
      objectReference: {fileID: 0}
    - target: {fileID: 0}
      propertyPath: Points.Array.data[0].x
      value: .850000024
      objectReference: {fileID: 0}
    - target: {fileID: 0}
      propertyPath: Points.Array.data[0].z
      value: .349999994
      objectReference: {fileID: 0}
    - target: {fileID: 0}
      propertyPath: Points.Array.data[1].x
      value: .25
      objectReference: {fileID: 0}
    - target: {fileID: 0}
      propertyPath: Points.Array.data[1].y
      value: .699999988
      objectReference: {fileID: 0}
    - target: {fileID: 0}
      propertyPath: Points.Array.data[1].z
      value: .25
      objectReference: {fileID: 0}
    - target: {fileID: 0}
      propertyPath: Points.Array.data[2].x
      value: -.300000012
      objectReference: {fileID: 0}
    - target: {fileID: 0}
      propertyPath: Points.Array.data[2].y
      value: .699999988
      objectReference: {fileID: 0}
    - target: {fileID: 0}
      propertyPath: Points.Array.data[2].z
      value: .170000002
      objectReference: {fileID: 0}
    - target: {fileID: 0}
      propertyPath: Points.Array.data[3].x
      value: -.899999976
      objectReference: {fileID: 0}
    - target: {fileID: 0}
      propertyPath: Points.Array.data[3].z
      value: -.25
      objectReference: {fileID: 0}
    - target: {fileID: 0}
      propertyPath: IsVeryFast
      value: 0
      objectReference: {fileID: 0}
    - target: {fileID: 0}
      propertyPath: Cooldown
      value: 2.5
      objectReference: {fileID: 0}
    - target: {fileID: 0}
      propertyPath: AnimatonSpeed
      value: 1
      objectReference: {fileID: 0}
    - target: {fileID: 0}
      propertyPath: AnimatorAttackSpeed
      value: AttackSpeed
      objectReference: {fileID: 0}
    - target: {fileID: 0}
      propertyPath: AnimatorTriggerName
      value: Melee1
      objectReference: {fileID: 0}
    - target: {fileID: 0}
      propertyPath: TriggerEndAt
      value: .800000012
      objectReference: {fileID: 0}
    m_RemovedComponents: []
  m_ParentPrefab: {fileID: 0}
  m_RootGameObject: {fileID: 137156}
  m_IsPrefabParent: 1
