%YAML 1.1
%TAG !u! tag:unity3d.com,2011:
--- !u!78 &1
TagManager:
  serializedVersion: 2
  tags:
  - Flesh
  - Metal
  - Wood
  - Concrete
  - Leaves
  - Comms
  - ConvoBox
  - e20m
  - RightStick
  - WeaponWheel
  - LeftStick
  layers:
  - Default
  - TransparentFX
  - Ignore Raycast
  - 
  - Water
  - UI
  - 
  - 
  - Players
  - Enemies
  - Projectiles
  - Weapons
  - Environment
  - Props
  - Floor
  - Powerups
  - TriggerZones
  - Glass
  - Frustum
  - 
  - 
  - 
  - 
  - 
  - 
  - 
  - 
  - 
  - 
  - 
  - 
  - 
  m_SortingLayers:
  - name: Default
    uniqueID: 0
    locked: 0
