%YAML 1.1
%TAG !u! tag:unity3d.com,2011:
--- !u!21 &2100000
Material:
  serializedVersion: 6
  m_ObjectHideFlags: 0
  m_PrefabParentObject: {fileID: 0}
  m_PrefabInternal: {fileID: 0}
  m_Name: IncludedSky
  m_Shader: {fileID: 106, guid: 0000000000000000f000000000000000, type: 0}
  m_ShaderKeywords: _SUNDISK_NONE
  m_LightmapFlags: 5
  m_CustomRenderQueue: -1
  stringTagMap: {}
  m_SavedProperties:
    serializedVersion: 2
    m_TexEnvs: {}
    m_Floats:
      data:
        first:
          name: _Exposure
        second: 2
      data:
        first:
          name: _SunSize
        second: 1
      data:
        first:
          name: _AtmosphereThickness
        second: 1
      data:
        first:
          name: _SunDisk
        second: 0
    m_Colors:
      data:
        first:
          name: _SkyTint
        second: {r: 1, g: 1, b: 1, a: 1}
      data:
        first:
          name: _GroundColor
        second: {r: .375, g: .339154422, b: .339154422, a: 1}
